<svg xmlns="http://www.w3.org/2000/svg" width="22.408" height="21.949" viewBox="0 0 22.408 21.949">
  <path id="Icon_awesome-twitter-square" data-name="Icon awesome-twitter-square" d="M20.007,2.25H2.4A2.377,2.377,0,0,0,0,4.6V21.847A2.377,2.377,0,0,0,2.4,24.2H20.007a2.377,2.377,0,0,0,2.4-2.352V4.6A2.377,2.377,0,0,0,20.007,2.25Zm-2.446,7.78c.01.137.01.279.01.416a9.17,9.17,0,0,1-9.333,9.142A9.432,9.432,0,0,1,3.2,18.148a7.054,7.054,0,0,0,.79.039,6.665,6.665,0,0,0,4.071-1.372A3.277,3.277,0,0,1,5,14.587a3.607,3.607,0,0,0,1.481-.059,3.231,3.231,0,0,1-2.626-3.155v-.039a3.33,3.33,0,0,0,1.481.407A3.189,3.189,0,0,1,3.871,9.065a3.124,3.124,0,0,1,.445-1.622A9.38,9.38,0,0,0,11.079,10.8a3.235,3.235,0,0,1,3.2-3.949,3.3,3.3,0,0,1,2.4,1.014A6.511,6.511,0,0,0,18.756,7.1a3.218,3.218,0,0,1-1.44,1.769,6.636,6.636,0,0,0,1.891-.5A6.829,6.829,0,0,1,17.561,10.03Z" transform="translate(0 -2.25)" fill="#f6eeee"/>
</svg>
