<?xml version="1.0" encoding="utf-8"?>
<!-- Generator: Adobe Illustrator 25.0.0, SVG Export Plug-In . SVG Version: 6.00 Build 0)  -->
<svg version="1.1" id="Layer_1" xmlns="http://www.w3.org/2000/svg" xmlns:xlink="http://www.w3.org/1999/xlink" x="0px" y="0px"
	 viewBox="0 0 401 336" style="enable-background:new 0 0 401 336;" xml:space="preserve">
<style type="text/css">
	.st0{fill:none;}
	.st1{fill:none;stroke:#F1F1F1;}
	.st2{fill:url(#Rectangle_563-2_1_);}
	.st3{fill:url(#Path_3299-2_1_);}
	.st4{fill:url(#Path_3300-2_1_);}
	.st5{fill:url(#Rectangle_564-2_1_);}
	.st6{fill:url(#Rectangle_671-2_1_);}
	.st7{fill:url(#Rectangle_675-2_1_);}
	.st8{fill:url(#Rectangle_566-2_1_);}
	.st9{fill:url(#Rectangle_670-2_1_);}
	.st10{fill:url(#Rectangle_674-2_1_);}
	.st11{fill:url(#Rectangle_565-2_1_);}
	.st12{fill:url(#Rectangle_669-2_1_);}
	.st13{fill:url(#Rectangle_673-2_1_);}
	.st14{fill:url(#Rectangle_567-2_1_);}
	.st15{fill:url(#Rectangle_668-2_1_);}
	.st16{fill:url(#Rectangle_672-2_1_);}
	.st17{fill:none;stroke:#707070;stroke-width:5;}
	.st18{fill:#979595;}
	.st19{font-family:'Montserrat-Medium';}
	.st20{font-size:11px;}
	.st21{font-size:10px;}
</style>
<g id="Group_1525" transform="translate(-95 -1482)">
	<g transform="matrix(1, 0, 0, 1, 95, 1482)">
		<path id="Rectangle_652-2" class="st0" d="M8.18,3.68h385c4.42,0,8,3.58,8,8v320c0,4.42-3.58,8-8,8h-385c-4.42,0-8-3.58-8-8v-320
			C0.18,7.26,3.76,3.68,8.18,3.68z"/>
	</g>
	<line id="Line_28" class="st1" x1="136.18" y1="1732.38" x2="475.34" y2="1732.38"/>
	<line id="Line_29" class="st1" x1="136.18" y1="1698.91" x2="475.34" y2="1698.91"/>
	<line id="Line_30" class="st1" x1="136.18" y1="1665.44" x2="475.34" y2="1665.44"/>
	<line id="Line_31" class="st1" x1="136.18" y1="1631.97" x2="475.34" y2="1631.97"/>
	<line id="Line_32" class="st1" x1="136.18" y1="1598.5" x2="475.34" y2="1598.5"/>
	<g transform="matrix(1, 0, 0, 1, 95, 1482)">
		
			<linearGradient id="Rectangle_563-2_1_" gradientUnits="userSpaceOnUse" x1="24.8827" y1="335.4572" x2="23.7007" y2="335.4572" gradientTransform="matrix(8.929 0 0 -121.128 -146.7549 40879.7188)">
			<stop  offset="0" style="stop-color:#E6E9FF"/>
			<stop  offset="1" style="stop-color:#858DF9"/>
		</linearGradient>
		<path id="Rectangle_563-2" class="st2" d="M69.33,185.9L69.33,185.9c2.47,0,4.46,2,4.46,4.46v116.66l0,0h-8.93l0,0V190.36
			C64.87,187.89,66.87,185.9,69.33,185.9C69.33,185.9,69.33,185.9,69.33,185.9z"/>
	</g>
	<g transform="matrix(1, 0, 0, 1, 95, 1482)">
		
			<linearGradient id="Path_3299-2_1_" gradientUnits="userSpaceOnUse" x1="22.9406" y1="335.5426" x2="21.7586" y2="335.5426" gradientTransform="matrix(9.726 0 0 -131.933 -34.6949 44506.9141)">
			<stop  offset="0" style="stop-color:#E6E9FF"/>
			<stop  offset="1" style="stop-color:#858DF9"/>
		</linearGradient>
		<path id="Path_3299-2" class="st3" d="M181.79,171.81c2.69,0,4.86,2.18,4.86,4.86l0,0v127.07h-9.73V176.67
			C176.93,173.98,179.11,171.81,181.79,171.81C181.79,171.81,181.79,171.81,181.79,171.81z"/>
	</g>
	<g transform="matrix(1, 0, 0, 1, 95, 1482)">
		
			<linearGradient id="Path_3300-2_1_" gradientUnits="userSpaceOnUse" x1="22.9406" y1="333.8334" x2="21.7586" y2="333.8334" gradientTransform="matrix(9.726 0 0 -47.369 81.5251 16095.875)">
			<stop  offset="0" style="stop-color:#E6E9FF"/>
			<stop  offset="1" style="stop-color:#858DF9"/>
		</linearGradient>
		<path id="Path_3300-2" class="st4" d="M298.01,258.84c2.69,0,4.86,0.78,4.86,1.75v45.62h-9.73v-45.62
			C293.15,259.62,295.33,258.84,298.01,258.84z"/>
	</g>
	<g transform="matrix(1, 0, 0, 1, 95, 1482)">
		
			<linearGradient id="Rectangle_564-2_1_" gradientUnits="userSpaceOnUse" x1="27.453" y1="334.8596" x2="26.453" y2="334.8596" gradientTransform="matrix(8 0 0 -77 -134.4449 26049.3613)">
			<stop  offset="0" style="stop-color:#EDD4FF"/>
			<stop  offset="1" style="stop-color:#BE6EF9"/>
		</linearGradient>
		<path id="Rectangle_564-2" class="st5" d="M81.18,226.68L81.18,226.68c2.21,0,4,1.79,4,4v73l0,0h-8l0,0v-73
			C77.18,228.47,78.97,226.68,81.18,226.68z"/>
	</g>
	<g transform="matrix(1, 0, 0, 1, 95, 1482)">
		
			<linearGradient id="Rectangle_671-2_1_" gradientUnits="userSpaceOnUse" x1="27.453" y1="333.3422" x2="26.453" y2="333.3422" gradientTransform="matrix(8 0 0 -40 -24.4449 13619.3623)">
			<stop  offset="0" style="stop-color:#EDD4FF"/>
			<stop  offset="1" style="stop-color:#BE6EF9"/>
		</linearGradient>
		<path id="Rectangle_671-2" class="st6" d="M191.18,265.68L191.18,265.68c2.21,0,4,1.79,4,4v36l0,0h-8l0,0v-36
			C187.18,267.47,188.97,265.68,191.18,265.68z"/>
	</g>
	<g transform="matrix(1, 0, 0, 1, 95, 1482)">
		
			<linearGradient id="Rectangle_675-2_1_" gradientUnits="userSpaceOnUse" x1="27.453" y1="331.4475" x2="26.453" y2="331.4475" gradientTransform="matrix(8 0 0 -25 92.5551 8577.3623)">
			<stop  offset="0" style="stop-color:#EDD4FF"/>
			<stop  offset="1" style="stop-color:#BE6EF9"/>
		</linearGradient>
		<path id="Rectangle_675-2" class="st7" d="M308.18,278.68L308.18,278.68c2.21,0,4,1.79,4,4v21l0,0h-8l0,0v-21
			C304.18,280.47,305.97,278.68,308.18,278.68z"/>
	</g>
	<g transform="matrix(1, 0, 0, 1, 95, 1482)">
		
			<linearGradient id="Rectangle_566-2_1_" gradientUnits="userSpaceOnUse" x1="24.8827" y1="335.5141" x2="23.7007" y2="335.5141" gradientTransform="matrix(8.929 0 0 -128.116 -124.6349 43226.3047)">
			<stop  offset="0" style="stop-color:#E9FFEB"/>
			<stop  offset="1" style="stop-color:#99F5A9"/>
		</linearGradient>
		<path id="Rectangle_566-2" class="st8" d="M91.45,177.53L91.45,177.53c2.47,0,4.46,2,4.46,4.46v123.65l0,0h-8.93l0,0V181.99
			C86.99,179.52,88.99,177.53,91.45,177.53C91.45,177.53,91.45,177.53,91.45,177.53z"/>
	</g>
	<g transform="matrix(1, 0, 0, 1, 95, 1482)">
		
			<linearGradient id="Rectangle_670-2_1_" gradientUnits="userSpaceOnUse" x1="24.8827" y1="334.8714" x2="23.7007" y2="334.8714" gradientTransform="matrix(8.929 0 0 -81.858 -15.1949 27677.1895)">
			<stop  offset="0" style="stop-color:#E9FFEB"/>
			<stop  offset="1" style="stop-color:#99F5A9"/>
		</linearGradient>
		<path id="Rectangle_670-2" class="st9" d="M200.89,224.36L200.89,224.36c2.47,0,4.46,2,4.46,4.46v77.39l0,0h-8.93l0,0v-77.39
			C196.43,226.35,198.43,224.36,200.89,224.36C200.89,224.36,200.89,224.36,200.89,224.36z"/>
	</g>
	<g transform="matrix(1, 0, 0, 1, 95, 1482)">
		
			<linearGradient id="Rectangle_674-2_1_" gradientUnits="userSpaceOnUse" x1="24.8827" y1="334.8243" x2="23.7007" y2="334.8243" gradientTransform="matrix(8.929 0 0 -75.381 101.0151 25508.9375)">
			<stop  offset="0" style="stop-color:#E9FFEB"/>
			<stop  offset="1" style="stop-color:#99F5A9"/>
		</linearGradient>
		<path id="Rectangle_674-2" class="st10" d="M317.1,231.86L317.1,231.86c2.47,0,4.46,2,4.46,4.46v70.92l0,0h-8.93l0,0v-70.92
			C312.64,233.85,314.64,231.86,317.1,231.86C317.1,231.86,317.1,231.86,317.1,231.86z"/>
	</g>
	<g transform="matrix(1, 0, 0, 1, 95, 1482)">
		
			<linearGradient id="Rectangle_565-2_1_" gradientUnits="userSpaceOnUse" x1="27.453" y1="335.6851" x2="26.453" y2="335.6851" gradientTransform="matrix(8 0 0 -155 -114.4449 52258.3633)">
			<stop  offset="0" style="stop-color:#F69AB9"/>
			<stop  offset="1" style="stop-color:#FB78A4"/>
		</linearGradient>
		<path id="Rectangle_565-2" class="st11" d="M101.18,149.68L101.18,149.68c2.21,0,4,1.79,4,4v151l0,0h-8l0,0v-151
			C97.18,151.47,98.97,149.68,101.18,149.68z"/>
	</g>
	<g transform="matrix(1, 0, 0, 1, 95, 1482)">
		
			<linearGradient id="Rectangle_669-2_1_" gradientUnits="userSpaceOnUse" x1="27.453" y1="335.8135" x2="26.453" y2="335.8135" gradientTransform="matrix(8 0 0 -184 -5.4449 62003.3633)">
			<stop  offset="0" style="stop-color:#F69AB9"/>
			<stop  offset="1" style="stop-color:#FB78A4"/>
		</linearGradient>
		<path id="Rectangle_669-2" class="st12" d="M210.18,121.68L210.18,121.68c2.21,0,4,1.79,4,4v180l0,0h-8l0,0v-180
			C206.18,123.47,207.97,121.68,210.18,121.68z"/>
	</g>
	<g transform="matrix(1, 0, 0, 1, 95, 1482)">
		
			<linearGradient id="Rectangle_673-2_1_" gradientUnits="userSpaceOnUse" x1="27.453" y1="335.5431" x2="26.453" y2="335.5431" gradientTransform="matrix(8 0 0 -132 111.5551 44530.3633)">
			<stop  offset="0" style="stop-color:#F69AB9"/>
			<stop  offset="1" style="stop-color:#FB78A4"/>
		</linearGradient>
		<path id="Rectangle_673-2" class="st13" d="M327.18,172.68L327.18,172.68c2.21,0,4,1.79,4,4v128l0,0h-8l0,0v-128
			C323.18,174.47,324.97,172.68,327.18,172.68z"/>
	</g>
	<g transform="matrix(1, 0, 0, 1, 95, 1482)">
		
			<linearGradient id="Rectangle_567-2_1_" gradientUnits="userSpaceOnUse" x1="24.8827" y1="335.172" x2="23.7007" y2="335.172" gradientTransform="matrix(8.929 0 0 -95.116 -105.5349 32138.7441)">
			<stop  offset="0" style="stop-color:#FFDFAE"/>
			<stop  offset="1" style="stop-color:#FF9900"/>
		</linearGradient>
		<path id="Rectangle_567-2" class="st14" d="M110.55,210.97L110.55,210.97c2.47,0,4.46,2,4.46,4.46v90.65l0,0h-8.93l0,0v-90.65
			C106.09,212.96,108.09,210.97,110.55,210.97C110.55,210.97,110.55,210.97,110.55,210.97z"/>
	</g>
	<g transform="matrix(1, 0, 0, 1, 95, 1482)">
		
			<linearGradient id="Rectangle_668-2_1_" gradientUnits="userSpaceOnUse" x1="24.8827" y1="335.2789" x2="23.7007" y2="335.2789" gradientTransform="matrix(8.929 0 0 -103.443 2.9051 34935.1016)">
			<stop  offset="0" style="stop-color:#FFDFAE"/>
			<stop  offset="1" style="stop-color:#FF9900"/>
		</linearGradient>
		<path id="Rectangle_668-2" class="st15" d="M218.99,201.13L218.99,201.13c2.47,0,4.46,2,4.46,4.46v98.98l0,0h-8.93l0,0v-98.98
			C214.53,203.12,216.53,201.13,218.99,201.13C218.99,201.13,218.99,201.13,218.99,201.13z"/>
	</g>
	<g transform="matrix(1, 0, 0, 1, 95, 1482)">
		
			<linearGradient id="Rectangle_672-2_1_" gradientUnits="userSpaceOnUse" x1="24.8827" y1="334.6503" x2="23.7007" y2="334.6503" gradientTransform="matrix(8.929 0 0 -68.287 120.7951 23122.832)">
			<stop  offset="0" style="stop-color:#FFDFAE"/>
			<stop  offset="1" style="stop-color:#FF9900"/>
		</linearGradient>
		<path id="Rectangle_672-2" class="st16" d="M336.88,236.43L336.88,236.43c2.47,0,4.46,2,4.46,4.46v63.82l0,0h-8.93l0,0v-63.82
			C332.42,238.42,334.42,236.43,336.88,236.43C336.88,236.43,336.88,236.43,336.88,236.43z"/>
	</g>
	<g id="Group_1348" transform="translate(142.877 1528.928)">
		<line id="Line_26" class="st17" x1="-8.38" y1="-2.32" x2="-8.04" y2="258.89"/>
		<line id="Line_27" class="st17" x1="332.47" y1="258.12" x2="-8.82" y2="258.12"/>
	</g>
	<text transform="matrix(1 0 0 1 104.466 1534.6753)" class="st18 st19 st20">Km</text>
	<text transform="matrix(1 0 0 1 174.13 1805.6753)" class="st18 st19 st20">Dec</text>
	<text transform="matrix(1 0 0 1 290.323 1805.6753)" class="st18 st19 st20">Jan</text>
	<text transform="matrix(1 0 0 1 404.619 1804.6753)" class="st18 st19 st21">Feb</text>
</g>
</svg>
