<?xml version="1.0" encoding="utf-8"?>
<!-- Generator: Adobe Illustrator 25.0.0, SVG Export Plug-In . SVG Version: 6.00 Build 0)  -->
<svg version="1.1" id="Layer_1" xmlns="http://www.w3.org/2000/svg" xmlns:xlink="http://www.w3.org/1999/xlink" x="0px" y="0px"
	 viewBox="0 0 343 306" style="enable-background:new 0 0 343 306;" xml:space="preserve">
<style type="text/css">
	.st0{fill:none;}
	.st1{fill:#4B4B4B;}
	.st2{font-family:'Montserrat-Medium';}
	.st3{font-size:11px;}
	.st4{fill:none;stroke:#707070;}
	.st5{font-size:9px;}
	.st6{font-size:10px;}
	.st7{fill:none;stroke:#BF52A9;stroke-width:2;}
	.st8{fill:url(#Ellipse_70-2_1_);}
	.st9{fill:url(#Ellipse_71-2_1_);}
	.st10{fill:url(#Ellipse_72-2_1_);}
	.st11{fill:url(#Ellipse_73-2_1_);}
	.st12{fill:url(#Ellipse_74-2_1_);}
	.st13{fill:url(#Ellipse_75-2_1_);}
	.st14{fill:#B4B4B4;}
	.st15{font-size:8px;}
	.st16{fill:#5A5858;}
</style>
<g id="graph_spendings" transform="translate(-106.553 -45)">
	<g transform="matrix(1, 0, 0, 1, 106.55, 45)">
		<path id="Rectangle_606-2" class="st0" d="M8.31,9.22h327c4.42,0,8,3.58,8,8v290c0,4.42-3.58,8-8,8h-327c-4.42,0-8-3.58-8-8v-290
			C0.31,12.8,3.89,9.22,8.31,9.22z"/>
	</g>
	<g id="graph_y_group" transform="translate(119.553 65)">
		<g id="Group_1377">
			<g transform="matrix(1, 0, 0, 1, -13, -20)">
				<text transform="matrix(1 0 0 1 3.9116 34.2222)" class="st1 st2 st3">$1000</text>
			</g>
			<g transform="matrix(1, 0, 0, 1, -13, -20)">
				<text transform="matrix(1 0 0 1 7.9366 78.2222)" class="st1 st2 st3">$750</text>
			</g>
		</g>
		<g id="Group_1378" transform="translate(3 91)">
			<g transform="matrix(1, 0, 0, 1, -16, -111)">
				<text transform="matrix(1 0 0 1 8.4026 125.2222)" class="st1 st2 st3">$500</text>
			</g>
			<g transform="matrix(1, 0, 0, 1, -16, -111)">
				<text transform="matrix(1 0 0 1 6.9146 168.2222)" class="st1 st2 st3">$250</text>
			</g>
		</g>
		<g id="Group_1379" transform="translate(6 188)">
			<g transform="matrix(1, 0, 0, 1, -19, -208)">
				<text transform="matrix(1 0 0 1 10.5796 222.2222)" class="st1 st2 st3">$100</text>
			</g>
		</g>
	</g>
	<g id="graph_lines" transform="translate(157.86 59.811)">
		<g transform="matrix(1, 0, 0, 1, -51.31, -14.81)">
			<line id="Line_49-2" class="st4" x1="42.62" y1="18.03" x2="42.62" y2="258.72"/>
		</g>
		<g transform="matrix(1, 0, 0, 1, -51.31, -14.81)">
			<line id="Line_50-2" class="st4" x1="42.62" y1="258.72" x2="335.31" y2="258.72"/>
		</g>
	</g>
	<g id="graph_x_group" transform="translate(151.553 312)">
		<g transform="matrix(1, 0, 0, 1, -45, -267)">
			<text transform="matrix(1 0 0 1 36.0936 279.2222)" class="st1 st2 st5">Mon</text>
		</g>
		<g transform="matrix(1, 0, 0, 1, -45, -267)">
			<text transform="matrix(1 0 0 1 81.9976 280.2222)" class="st1 st2 st6">Tue</text>
		</g>
		<g transform="matrix(1, 0, 0, 1, -45, -267)">
			<text transform="matrix(1 0 0 1 123.3106 281.2222)" class="st1 st2 st3">Wen</text>
		</g>
		<g transform="matrix(1, 0, 0, 1, -45, -267)">
			<text transform="matrix(1 0 0 1 170.5376 280.2222)" class="st1 st2 st6">Thur</text>
		</g>
		<g transform="matrix(1, 0, 0, 1, -45, -267)">
			<text transform="matrix(1 0 0 1 217.4316 279.2222)" class="st1 st2 st5">Fri</text>
		</g>
		<g transform="matrix(1, 0, 0, 1, -45, -267)">
			<text transform="matrix(1 0 0 1 252.1476 280.2222)" class="st1 st2 st6">Sat</text>
		</g>
		<g transform="matrix(1, 0, 0, 1, -45, -267)">
			<text transform="matrix(1 0 0 1 289.4176 280.2222)" class="st1 st2 st6">Sun</text>
		</g>
	</g>
	<g id="graph_line" transform="translate(157.86 103.169)">
		<g transform="matrix(1, 0, 0, 1, -51.31, -58.17)">
			<path id="Path_3285-2" class="st7" d="M42.62,258.13c0,0,6.15-44.1,23.54-44.1s25.13,50.63,46,44.1s16.19-59.22,37.49-70.24
				s26.55,57.77,47.71,26.15s18.6-152.65,36.92-152.65s18.03,128.62,36.35,152.65c16.72,21.94,13.35-48.67,34.62-52.1
				s17.82-0.47,18.62-1.7"/>
		</g>
	</g>
	<g id="graph_pos" transform="translate(171.553 85)">
		<g transform="matrix(1, 0, 0, 1, -65, -40)">
			
				<linearGradient id="Ellipse_70-2_1_" gradientUnits="userSpaceOnUse" x1="20.466" y1="294.7891" x2="20.614" y2="293.9851" gradientTransform="matrix(12 0 0 -12 -184.445 3741.3623)">
				<stop  offset="0" style="stop-color:#C4C4C4"/>
				<stop  offset="1" style="stop-color:#535353"/>
			</linearGradient>
			<circle id="Ellipse_70-2" class="st8" cx="62.31" cy="210.22" r="6"/>
		</g>
		<g transform="matrix(1, 0, 0, 1, -65, -40)">
			
				<linearGradient id="Ellipse_71-2_1_" gradientUnits="userSpaceOnUse" x1="20.466" y1="294.7891" x2="20.614" y2="293.9851" gradientTransform="matrix(12 0 0 -12 -92.445 3715.3623)">
				<stop  offset="0" style="stop-color:#C4C4C4"/>
				<stop  offset="1" style="stop-color:#535353"/>
			</linearGradient>
			<circle id="Ellipse_71-2" class="st9" cx="154.31" cy="184.22" r="6"/>
		</g>
		<g transform="matrix(1, 0, 0, 1, -65, -40)">
			
				<linearGradient id="Ellipse_72-2_1_" gradientUnits="userSpaceOnUse" x1="20.466" y1="294.7891" x2="20.614" y2="293.9851" gradientTransform="matrix(12 0 0 -12 -59.445 3753.3623)">
				<stop  offset="0" style="stop-color:#C4C4C4"/>
				<stop  offset="1" style="stop-color:#535353"/>
			</linearGradient>
			<circle id="Ellipse_72-2" class="st10" cx="187.31" cy="222.22" r="6"/>
		</g>
		<g transform="matrix(1, 0, 0, 1, -65, -40)">
			
				<linearGradient id="Ellipse_73-2_1_" gradientUnits="userSpaceOnUse" x1="20.466" y1="294.7891" x2="20.614" y2="293.9851" gradientTransform="matrix(12 0 0 -12 -13.445 3588.3623)">
				<stop  offset="0" style="stop-color:#C4C4C4"/>
				<stop  offset="1" style="stop-color:#535353"/>
			</linearGradient>
			<circle id="Ellipse_73-2" class="st11" cx="233.31" cy="57.22" r="6"/>
		</g>
		<g transform="matrix(1, 0, 0, 1, -65, -40)">
			
				<linearGradient id="Ellipse_74-2_1_" gradientUnits="userSpaceOnUse" x1="20.466" y1="294.7891" x2="20.614" y2="293.9851" gradientTransform="matrix(12 0 0 -12 29.555 3747.3623)">
				<stop  offset="0" style="stop-color:#C4C4C4"/>
				<stop  offset="1" style="stop-color:#535353"/>
			</linearGradient>
			<circle id="Ellipse_74-2" class="st12" cx="276.31" cy="216.22" r="6"/>
		</g>
		<g transform="matrix(1, 0, 0, 1, -65, -40)">
			
				<linearGradient id="Ellipse_75-2_1_" gradientUnits="userSpaceOnUse" x1="20.466" y1="294.7891" x2="20.614" y2="293.9851" gradientTransform="matrix(12 0 0 -12 75.555 3687.3623)">
				<stop  offset="0" style="stop-color:#C4C4C4"/>
				<stop  offset="1" style="stop-color:#535353"/>
			</linearGradient>
			<circle id="Ellipse_75-2" class="st13" cx="322.31" cy="156.22" r="6"/>
		</g>
		<g transform="matrix(1, 0, 0, 1, -65, -40)">
			<text transform="matrix(1 0 0 1 65.8956 202.2222)" class="st14 st2 st5">$100</text>
		</g>
		<g transform="matrix(1, 0, 0, 1, -65, -40)">
			<text transform="matrix(1 0 0 1 158.3136 176.2222)" class="st14 st2 st5">$150</text>
		</g>
		<g transform="matrix(1, 0, 0, 1, -65, -40)">
			<text transform="matrix(1 0 0 1 194.2526 231.2222)" class="st14 st2 st15">$75</text>
		</g>
		<g transform="matrix(1, 0, 0, 1, -65, -40)">
			<text transform="matrix(1 0 0 1 283.2526 227.2222)" class="st14 st2 st15">$75</text>
		</g>
		<g transform="matrix(1, 0, 0, 1, -65, -40)">
			<text transform="matrix(1 0 0 1 320.3506 147.2222)" class="st14 st2 st5">$250</text>
		</g>
		<g transform="matrix(1, 0, 0, 1, -65, -40)">
			<text transform="matrix(1 0 0 1 239.3686 52.2222)" class="st14 st2 st5">$750</text>
		</g>
	</g>
	<g transform="matrix(1, 0, 0, 1, 106.55, 45)">
		<text transform="matrix(1 0 0 1 150.8176 23.2222)" class="st16 st2 st6">Earnings</text>
	</g>
</g>
</svg>
